#
# There is insufficient memory for the Java Runtime Environment to continue.
# Native memory allocation (malloc) failed to allocate 33030144 bytes for committing reserved memory.
# Possible reasons:
#   The system is out of physical RAM or swap space
#   In 32 bit mode, the process size limit was hit
# Possible solutions:
#   Reduce memory load on the system
#   Increase physical memory or swap space
#   Check if swap backing store is full
#   Use 64 bit Java on a 64 bit OS
#   Decrease Java heap size (-Xmx/-Xms)
#   Decrease number of Java threads
#   Decrease Java thread stack sizes (-Xss)
#   Set larger code cache with -XX:ReservedCodeCacheSize=
# This output file may be truncated or incomplete.
#
#  Out of Memory Error (os_linux.cpp:2756), pid=6617, tid=140018491287296
#
# JRE version: Java(TM) SE Runtime Environment (7.0_76-b13) (build 1.7.0_76-b13)
# Java VM: Java HotSpot(TM) 64-Bit Server VM (24.76-b04 mixed mode linux-amd64 compressed oops)
# Failed to write core dump. Core dumps have been disabled. To enable core dumping, try "ulimit -c unlimited" before starting Java again
#

---------------  T H R E A D  ---------------

Current thread (0x00007f589c1b9800):  VMThread [stack: 0x00007f58985f6000,0x00007f58986f7000] [id=6634]

Stack: [0x00007f58985f6000,0x00007f58986f7000],  sp=0x00007f58986f52c0,  free space=1020k
Native frames: (J=compiled Java code, j=interpreted, Vv=VM code, C=native code)
V  [libjvm.so+0x9a32ba]  VMError::report_and_die()+0x2ea
V  [libjvm.so+0x497f7b]  report_vm_out_of_memory(char const*, int, unsigned long, char const*)+0x9b
V  [libjvm.so+0x81fcce]  os::Linux::commit_memory_impl(char*, unsigned long, bool)+0xfe
V  [libjvm.so+0x820219]  os::pd_commit_memory(char*, unsigned long, unsigned long, bool)+0x29
V  [libjvm.so+0x819faa]  os::commit_memory(char*, unsigned long, unsigned long, bool)+0x2a
V  [libjvm.so+0x88d843]  PSVirtualSpace::expand_by(unsigned long)+0x53
V  [libjvm.so+0x88ec18]  PSYoungGen::resize_generation(unsigned long, unsigned long)+0xf8
V  [libjvm.so+0x88dd82]  PSYoungGen::resize(unsigned long, unsigned long)+0x22
V  [libjvm.so+0x88b13d]  PSScavenge::invoke_no_policy()+0xf3d
V  [libjvm.so+0x88b981]  PSScavenge::invoke()+0x41
V  [libjvm.so+0x842300]  ParallelScavengeHeap::failed_mem_allocate(unsigned long)+0x70
V  [libjvm.so+0x9a4b47]  VM_ParallelGCFailedAllocation::doit()+0x97
V  [libjvm.so+0x9abfe5]  VM_Operation::evaluate()+0x55
V  [libjvm.so+0x9aa3aa]  VMThread::evaluate_operation(VM_Operation*)+0xba
V  [libjvm.so+0x9aa72e]  VMThread::loop()+0x1ce
V  [libjvm.so+0x9aaba0]  VMThread::run()+0x70
V  [libjvm.so+0x821ca8]  java_start(Thread*)+0x108

VM_Operation (0x00007f58a5106850): ParallelGCFailedAllocation, mode: safepoint, requested by thread 0x00007f589c00a000


---------------  P R O C E S S  ---------------

Java Threads: ( => current thread )
  0x00007f589c1e9800 JavaThread "Service Thread" daemon [_thread_blocked, id=6640, stack(0x00007f587558c000,0x00007f587568d000)]
  0x00007f589c1e7800 JavaThread "C2 CompilerThread1" daemon [_thread_blocked, id=6639, stack(0x00007f58980f1000,0x00007f58981f2000)]
  0x00007f589c1e4800 JavaThread "C2 CompilerThread0" daemon [_thread_blocked, id=6638, stack(0x00007f58981f2000,0x00007f58982f3000)]
  0x00007f589c1e2000 JavaThread "Signal Dispatcher" daemon [_thread_blocked, id=6637, stack(0x00007f58982f3000,0x00007f58983f4000)]
  0x00007f589c1c0000 JavaThread "Finalizer" daemon [_thread_blocked, id=6636, stack(0x00007f58983f4000,0x00007f58984f5000)]
  0x00007f589c1be000 JavaThread "Reference Handler" daemon [_thread_blocked, id=6635, stack(0x00007f58984f5000,0x00007f58985f6000)]
  0x00007f589c00a000 JavaThread "main" [_thread_blocked, id=6625, stack(0x00007f58a5008000,0x00007f58a5109000)]

Other Threads:
=>0x00007f589c1b9800 VMThread [stack: 0x00007f58985f6000,0x00007f58986f7000] [id=6634]
  0x00007f589c1f4800 WatcherThread [stack: 0x00007f587548b000,0x00007f587558c000] [id=6641]

VM state:at safepoint (normal execution)

VM Mutex/Monitor currently owned by a thread:  ([mutex/lock_event])
[0x00007f589c006490] Threads_lock - owner thread: 0x00007f589c1b9800
[0x00007f589c006990] Heap_lock - owner thread: 0x00007f589c00a000

Heap
 PSYoungGen      total 37376K, used 5093K [0x00000000eaa80000, 0x00000000ed400000, 0x0000000100000000)
  eden space 32256K, 0% used [0x00000000eaa80000,0x00000000eaa80000,0x00000000eca00000)
  from space 5120K, 99% used [0x00000000eca00000,0x00000000ecef9448,0x00000000ecf00000)
  to   space 5120K, 0% used [0x00000000ecf00000,0x00000000ecf00000,0x00000000ed400000)
 ParOldGen       total 83968K, used 1122K [0x00000000c0000000, 0x00000000c5200000, 0x00000000eaa80000)
  object space 83968K, 1% used [0x00000000c0000000,0x00000000c0118bc8,0x00000000c5200000)
 PSPermGen       total 21504K, used 5099K [0x00000000bae00000, 0x00000000bc300000, 0x00000000c0000000)
  object space 21504K, 23% used [0x00000000bae00000,0x00000000bb2fac80,0x00000000bc300000)

Card table byte_map: [0x00007f58a20c8000,0x00007f58a22f2000] byte_map_base: 0x00007f58a1af1000

Polling page: 0x00007f58a5127000

Code Cache  [0x00007f5899000000, 0x00007f5899270000, 0x00007f589c000000)
 total_blobs=405 nmethods=196 adapters=162 free_code_cache=48272Kb largest_free_block=49371456

Compilation events (10 events):
Event: 5,146 Thread 0x00007f589c1e7800  192             java.util.ArrayList$SubList::checkForComodification (23 bytes)
Event: 5,146 Thread 0x00007f589c1e4800  191             com.android.dx.rop.code.PlainInsn::accept (8 bytes)
Event: 6,626 Thread 0x00007f589c1e7800 nmethod 192 0x00007f58990cb7d0 code [0x00007f58990cb920, 0x00007f58990cb998]
Event: 6,626 Thread 0x00007f589c1e4800 nmethod 191 0x00007f589908cc90 code [0x00007f589908cde0, 0x00007f589908ce58]
Event: 6,720 Thread 0x00007f589c1e4800  193             com.android.dx.dex.code.OutputCollector::add (9 bytes)
Event: 6,720 Thread 0x00007f589c1e7800  194             com.android.dx.dex.code.OutputFinisher::add (15 bytes)
Event: 9,482 Thread 0x00007f589c1e4800 nmethod 193 0x00007f58990cef50 code [0x00007f58990cf100, 0x00007f58990cf540]
Event: 9,482 Thread 0x00007f589c1e7800 nmethod 194 0x00007f589908c190 code [0x00007f589908c340, 0x00007f589908c760]
Event: 9,539 Thread 0x00007f589c1e7800  195             com.android.dx.dex.code.OutputFinisher::updateInfo (44 bytes)
Event: 9,539 Thread 0x00007f589c1e4800  196   !         com.android.dx.util.IntList::set (53 bytes)

GC Heap History (1 events):
Event: 10,407 GC heap before
{Heap before GC invocations=1 (full 0):
 PSYoungGen      total 37376K, used 32256K [0x00000000eaa80000, 0x00000000ed400000, 0x0000000100000000)
  eden space 32256K, 100% used [0x00000000eaa80000,0x00000000eca00000,0x00000000eca00000)
  from space 5120K, 0% used [0x00000000ecf00000,0x00000000ecf00000,0x00000000ed400000)
  to   space 5120K, 0% used [0x00000000eca00000,0x00000000eca00000,0x00000000ecf00000)
 ParOldGen       total 83968K, used 0K [0x00000000c0000000, 0x00000000c5200000, 0x00000000eaa80000)
  object space 83968K, 0% used [0x00000000c0000000,0x00000000c0000000,0x00000000c5200000)
 PSPermGen       total 21504K, used 5099K [0x00000000bae00000, 0x00000000bc300000, 0x00000000c0000000)
  object space 21504K, 23% used [0x00000000bae00000,0x00000000bb2fac80,0x00000000bc300000)

Deoptimization events (7 events):
Event: 0,711 Thread 0x00007f589c00a000 Uncommon trap: reason=class_check action=maybe_recompile pc=0x00007f589906edc8 method=com.android.dx.ssa.NormalSsaInsn.accept(Lcom/android/dx/ssa/SsaInsn$Visitor;)V @ 9
Event: 0,711 Thread 0x00007f589c00a000 Uncommon trap: reason=class_check action=maybe_recompile pc=0x00007f589906edc8 method=com.android.dx.ssa.NormalSsaInsn.accept(Lcom/android/dx/ssa/SsaInsn$Visitor;)V @ 9
Event: 0,722 Thread 0x00007f589c00a000 Uncommon trap: reason=class_check action=maybe_recompile pc=0x00007f589906edc8 method=com.android.dx.ssa.NormalSsaInsn.accept(Lcom/android/dx/ssa/SsaInsn$Visitor;)V @ 9
Event: 0,723 Thread 0x00007f589c00a000 Uncommon trap: reason=class_check action=maybe_recompile pc=0x00007f589906edc8 method=com.android.dx.ssa.NormalSsaInsn.accept(Lcom/android/dx/ssa/SsaInsn$Visitor;)V @ 9
Event: 0,828 Thread 0x00007f589c00a000 Uncommon trap: reason=null_check action=make_not_entrant pc=0x00007f589907caf0 method=com.android.dx.rop.code.LocalItem.equals(Ljava/lang/Object;)Z @ 1
Event: 1,117 Thread 0x00007f589c00a000 Uncommon trap: reason=null_check action=make_not_entrant pc=0x00007f58990b1ddc method=com.android.dx.rop.code.RegisterSpec.equals(Ljava/lang/Object;)Z @ 1
Event: 3,847 Thread 0x00007f589c00a000 Uncommon trap: reason=null_check action=make_not_entrant pc=0x00007f58990b6974 method=com.android.dx.ssa.SsaRenamer.getLocalForNewReg(I)Lcom/android/dx/rop/code/LocalItem; @ 19

Internal exceptions (10 events):
Event: 1,112 Thread 0x00007f589c00a000 Implicit null exception at 0x00007f58990b0e8b to 0x00007f58990b1db1
Event: 2,177 Thread 0x00007f589c00a000 Threw 0x00000000ec34ceb8 at /HUDSON/workspace/7u-2-build-linux-amd64/jdk7u76/1941/hotspot/src/share/vm/prims/jvm.cpp:1304
Event: 3,768 Thread 0x00007f589c00a000 Implicit null exception at 0x00007f58990b5471 to 0x00007f58990b6949
Event: 5,323 Thread 0x00007f589c00a000 Threw 0x00000000ec4cf7b8 at /HUDSON/workspace/7u-2-build-linux-amd64/jdk7u76/1941/hotspot/src/share/vm/prims/jvm.cpp:1304
Event: 6,231 Thread 0x00007f589c00a000 Threw 0x00000000ec4d45c8 at /HUDSON/workspace/7u-2-build-linux-amd64/jdk7u76/1941/hotspot/src/share/vm/prims/jvm.cpp:1304
Event: 6,838 Thread 0x00007f589c00a000 Threw 0x00000000ec4e3ef0 at /HUDSON/workspace/7u-2-build-linux-amd64/jdk7u76/1941/hotspot/src/share/vm/prims/jvm.cpp:1304
Event: 7,207 Thread 0x00007f589c00a000 Threw 0x00000000ec4e6240 at /HUDSON/workspace/7u-2-build-linux-amd64/jdk7u76/1941/hotspot/src/share/vm/prims/jvm.cpp:1304
Event: 7,699 Thread 0x00007f589c00a000 Threw 0x00000000ec4f0328 at /HUDSON/workspace/7u-2-build-linux-amd64/jdk7u76/1941/hotspot/src/share/vm/prims/jvm.cpp:1304
Event: 7,982 Thread 0x00007f589c00a000 Threw 0x00000000ec4f28f8 at /HUDSON/workspace/7u-2-build-linux-amd64/jdk7u76/1941/hotspot/src/share/vm/prims/jvm.cpp:1304
Event: 9,213 Thread 0x00007f589c00a000 Threw 0x00000000ec4fc4c0 at /HUDSON/workspace/7u-2-build-linux-amd64/jdk7u76/1941/hotspot/src/share/vm/prims/jvm.cpp:1304

Events (10 events):
Event: 6,819 loading class 0x00007f589c229600 done
Event: 7,149 loading class 0x00007f589c224d10
Event: 7,194 loading class 0x00007f589c224d10 done
Event: 7,666 loading class 0x00007f589c229b30
Event: 7,684 loading class 0x00007f589c229b30 done
Event: 7,904 loading class 0x00007f589c31ff30
Event: 7,935 loading class 0x00007f589c31ff30 done
Event: 8,830 loading class 0x00007f589c2a3920
Event: 8,866 loading class 0x00007f589c2a3920 done
Event: 10,233 Executing VM operation: ParallelGCFailedAllocation


Dynamic libraries:
00400000-00401000 r-xp 00000000 08:05 799863                             /usr/lib/jvm/java-7-oracle/jre/bin/java
00600000-00601000 rw-p 00000000 08:05 799863                             /usr/lib/jvm/java-7-oracle/jre/bin/java
00860000-00881000 rw-p 00000000 00:00 0                                  [heap]
bae00000-bc300000 rw-p 00000000 00:00 0 
bc300000-c0000000 rw-p 00000000 00:00 0 
c0000000-c5200000 rw-p 00000000 00:00 0 
c5200000-eaa80000 rw-p 00000000 00:00 0 
eaa80000-ed400000 rw-p 00000000 00:00 0 
ef380000-100000000 rw-p 00000000 00:00 0 
7f5850000000-7f5850021000 rw-p 00000000 00:00 0 
7f5850021000-7f5854000000 ---p 00000000 00:00 0 
7f5858000000-7f585981d000 rw-p 00000000 00:00 0 
7f585981d000-7f585c000000 ---p 00000000 00:00 0 
7f585c000000-7f585c021000 rw-p 00000000 00:00 0 
7f585c021000-7f5860000000 ---p 00000000 00:00 0 
7f5860000000-7f5860021000 rw-p 00000000 00:00 0 
7f5860021000-7f5864000000 ---p 00000000 00:00 0 
7f5864000000-7f5864897000 rw-p 00000000 00:00 0 
7f5864897000-7f5868000000 ---p 00000000 00:00 0 
7f5868000000-7f5868021000 rw-p 00000000 00:00 0 
7f5868021000-7f586c000000 ---p 00000000 00:00 0 
7f586c000000-7f586c021000 rw-p 00000000 00:00 0 
7f586c021000-7f5870000000 ---p 00000000 00:00 0 
7f5870000000-7f587024f000 rw-p 00000000 00:00 0 
7f587024f000-7f5874000000 ---p 00000000 00:00 0 
7f587548b000-7f587548c000 ---p 00000000 00:00 0 
7f587548c000-7f587558c000 rw-p 00000000 00:00 0                          [stack:6641]
7f587558c000-7f587558f000 ---p 00000000 00:00 0 
7f587558f000-7f587568d000 rw-p 00000000 00:00 0                          [stack:6640]
7f587568d000-7f5875d70000 r--p 00000000 08:05 792063                     /usr/lib/locale/locale-archive
7f5875d70000-7f5878000000 rw-p 00000000 00:00 0 
7f5878000000-7f5878021000 rw-p 00000000 00:00 0 
7f5878021000-7f587c000000 ---p 00000000 00:00 0 
7f587c000000-7f587c021000 rw-p 00000000 00:00 0 
7f587c021000-7f5880000000 ---p 00000000 00:00 0 
7f5880000000-7f5880021000 rw-p 00000000 00:00 0 
7f5880021000-7f5884000000 ---p 00000000 00:00 0 
7f5884000000-7f5884021000 rw-p 00000000 00:00 0 
7f5884021000-7f5888000000 ---p 00000000 00:00 0 
7f5888000000-7f5888021000 rw-p 00000000 00:00 0 
7f5888021000-7f588c000000 ---p 00000000 00:00 0 
7f588c000000-7f588c021000 rw-p 00000000 00:00 0 
7f588c021000-7f5890000000 ---p 00000000 00:00 0 
7f5890000000-7f5890021000 rw-p 00000000 00:00 0 
7f5890021000-7f5894000000 ---p 00000000 00:00 0 
7f5894000000-7f5894021000 rw-p 00000000 00:00 0 
7f5894021000-7f5898000000 ---p 00000000 00:00 0 
7f58980f1000-7f58980f4000 ---p 00000000 00:00 0 
7f58980f4000-7f58981f2000 rw-p 00000000 00:00 0                          [stack:6639]
7f58981f2000-7f58981f5000 ---p 00000000 00:00 0 
7f58981f5000-7f58982f3000 rw-p 00000000 00:00 0                          [stack:6638]
7f58982f3000-7f58982f6000 ---p 00000000 00:00 0 
7f58982f6000-7f58983f4000 rw-p 00000000 00:00 0                          [stack:6637]
7f58983f4000-7f58983f7000 ---p 00000000 00:00 0 
7f58983f7000-7f58984f5000 rw-p 00000000 00:00 0                          [stack:6636]
7f58984f5000-7f58984f8000 ---p 00000000 00:00 0 
7f58984f8000-7f58985f6000 rw-p 00000000 00:00 0                          [stack:6635]
7f58985f6000-7f58985f7000 ---p 00000000 00:00 0 
7f58985f7000-7f5899000000 rw-p 00000000 00:00 0                          [stack:6634]
7f5899000000-7f5899270000 rwxp 00000000 00:00 0 
7f5899270000-7f589c32a000 rw-p 00000000 00:00 0 
7f589c32a000-7f58a0000000 ---p 00000000 00:00 0 
7f58a002b000-7f58a1288000 rw-p 00000000 00:00 0 
7f58a1288000-7f58a1447000 r--s 039f0000 08:05 800348                     /usr/lib/jvm/java-7-oracle/jre/lib/rt.jar
7f58a1447000-7f58a1741000 rw-p 00000000 00:00 0 
7f58a1741000-7f58a1742000 ---p 00000000 00:00 0 
7f58a1742000-7f58a1842000 rw-p 00000000 00:00 0                          [stack:6633]
7f58a1842000-7f58a1843000 ---p 00000000 00:00 0 
7f58a1843000-7f58a1943000 rw-p 00000000 00:00 0                          [stack:6632]
7f58a1943000-7f58a1944000 ---p 00000000 00:00 0 
7f58a1944000-7f58a1a44000 rw-p 00000000 00:00 0                          [stack:6631]
7f58a1a44000-7f58a1a45000 ---p 00000000 00:00 0 
7f58a1a45000-7f58a1b45000 rw-p 00000000 00:00 0                          [stack:6630]
7f58a1b45000-7f58a1b46000 ---p 00000000 00:00 0 
7f58a1b46000-7f58a1c46000 rw-p 00000000 00:00 0                          [stack:6629]
7f58a1c46000-7f58a1c47000 ---p 00000000 00:00 0 
7f58a1c47000-7f58a1d47000 rw-p 00000000 00:00 0                          [stack:6628]
7f58a1d47000-7f58a1d48000 ---p 00000000 00:00 0 
7f58a1d48000-7f58a1e48000 rw-p 00000000 00:00 0                          [stack:6627]
7f58a1e48000-7f58a1e49000 ---p 00000000 00:00 0 
7f58a1e49000-7f58a1f54000 rw-p 00000000 00:00 0                          [stack:6626]
7f58a1f54000-7f58a1f72000 rw-p 00000000 00:00 0 
7f58a1f72000-7f58a1f9b000 rw-p 00000000 00:00 0 
7f58a1f9b000-7f58a20c8000 rw-p 00000000 00:00 0 
7f58a20c8000-7f58a20d3000 rw-p 00000000 00:00 0 
7f58a20d3000-7f58a20f1000 rw-p 00000000 00:00 0 
7f58a20f1000-7f58a211a000 rw-p 00000000 00:00 0 
7f58a211a000-7f58a2246000 rw-p 00000000 00:00 0 
7f58a2246000-7f58a225b000 rw-p 00000000 00:00 0 
7f58a225b000-7f58a22f1000 rw-p 00000000 00:00 0 
7f58a22f1000-7f58a22f2000 rw-p 00000000 00:00 0 
7f58a22f2000-7f58a230c000 r-xp 00000000 08:05 800601                     /usr/lib/jvm/java-7-oracle/jre/lib/amd64/libzip.so
7f58a230c000-7f58a250c000 ---p 0001a000 08:05 800601                     /usr/lib/jvm/java-7-oracle/jre/lib/amd64/libzip.so
7f58a250c000-7f58a250d000 rw-p 0001a000 08:05 800601                     /usr/lib/jvm/java-7-oracle/jre/lib/amd64/libzip.so
7f58a250d000-7f58a2518000 r-xp 00000000 08:05 168939                     /lib/x86_64-linux-gnu/libnss_files-2.19.so
7f58a2518000-7f58a2717000 ---p 0000b000 08:05 168939                     /lib/x86_64-linux-gnu/libnss_files-2.19.so
7f58a2717000-7f58a2718000 r--p 0000a000 08:05 168939                     /lib/x86_64-linux-gnu/libnss_files-2.19.so
7f58a2718000-7f58a2719000 rw-p 0000b000 08:05 168939                     /lib/x86_64-linux-gnu/libnss_files-2.19.so
7f58a2719000-7f58a2724000 r-xp 00000000 08:05 168966                     /lib/x86_64-linux-gnu/libnss_nis-2.19.so
7f58a2724000-7f58a2923000 ---p 0000b000 08:05 168966                     /lib/x86_64-linux-gnu/libnss_nis-2.19.so
7f58a2923000-7f58a2924000 r--p 0000a000 08:05 168966                     /lib/x86_64-linux-gnu/libnss_nis-2.19.so
7f58a2924000-7f58a2925000 rw-p 0000b000 08:05 168966                     /lib/x86_64-linux-gnu/libnss_nis-2.19.so
7f58a2925000-7f58a293c000 r-xp 00000000 08:05 168951                     /lib/x86_64-linux-gnu/libnsl-2.19.so
7f58a293c000-7f58a2b3b000 ---p 00017000 08:05 168951                     /lib/x86_64-linux-gnu/libnsl-2.19.so
7f58a2b3b000-7f58a2b3c000 r--p 00016000 08:05 168951                     /lib/x86_64-linux-gnu/libnsl-2.19.so
7f58a2b3c000-7f58a2b3d000 rw-p 00017000 08:05 168951                     /lib/x86_64-linux-gnu/libnsl-2.19.so
7f58a2b3d000-7f58a2b3f000 rw-p 00000000 00:00 0 
7f58a2b3f000-7f58a2b48000 r-xp 00000000 08:05 168950                     /lib/x86_64-linux-gnu/libnss_compat-2.19.so
7f58a2b48000-7f58a2d47000 ---p 00009000 08:05 168950                     /lib/x86_64-linux-gnu/libnss_compat-2.19.so
7f58a2d47000-7f58a2d48000 r--p 00008000 08:05 168950                     /lib/x86_64-linux-gnu/libnss_compat-2.19.so
7f58a2d48000-7f58a2d49000 rw-p 00009000 08:05 168950                     /lib/x86_64-linux-gnu/libnss_compat-2.19.so
7f58a2d49000-7f58a2d72000 r-xp 00000000 08:05 800561                     /usr/lib/jvm/java-7-oracle/jre/lib/amd64/libjava.so
7f58a2d72000-7f58a2f72000 ---p 00029000 08:05 800561                     /usr/lib/jvm/java-7-oracle/jre/lib/amd64/libjava.so
7f58a2f72000-7f58a2f74000 rw-p 00029000 08:05 800561                     /usr/lib/jvm/java-7-oracle/jre/lib/amd64/libjava.so
7f58a2f74000-7f58a2f81000 r-xp 00000000 08:05 800584                     /usr/lib/jvm/java-7-oracle/jre/lib/amd64/libverify.so
7f58a2f81000-7f58a3180000 ---p 0000d000 08:05 800584                     /usr/lib/jvm/java-7-oracle/jre/lib/amd64/libverify.so
7f58a3180000-7f58a3182000 rw-p 0000c000 08:05 800584                     /usr/lib/jvm/java-7-oracle/jre/lib/amd64/libverify.so
7f58a3182000-7f58a3189000 r-xp 00000000 08:05 168962                     /lib/x86_64-linux-gnu/librt-2.19.so
7f58a3189000-7f58a3388000 ---p 00007000 08:05 168962                     /lib/x86_64-linux-gnu/librt-2.19.so
7f58a3388000-7f58a3389000 r--p 00006000 08:05 168962                     /lib/x86_64-linux-gnu/librt-2.19.so
7f58a3389000-7f58a338a000 rw-p 00007000 08:05 168962                     /lib/x86_64-linux-gnu/librt-2.19.so
7f58a338a000-7f58a348f000 r-xp 00000000 08:05 133322                     /lib/x86_64-linux-gnu/libm-2.19.so
7f58a348f000-7f58a368e000 ---p 00105000 08:05 133322                     /lib/x86_64-linux-gnu/libm-2.19.so
7f58a368e000-7f58a368f000 r--p 00104000 08:05 133322                     /lib/x86_64-linux-gnu/libm-2.19.so
7f58a368f000-7f58a3690000 rw-p 00105000 08:05 133322                     /lib/x86_64-linux-gnu/libm-2.19.so
7f58a3690000-7f58a4205000 r-xp 00000000 08:05 800577                     /usr/lib/jvm/java-7-oracle/jre/lib/amd64/server/libjvm.so
7f58a4205000-7f58a4405000 ---p 00b75000 08:05 800577                     /usr/lib/jvm/java-7-oracle/jre/lib/amd64/server/libjvm.so
7f58a4405000-7f58a44c9000 rw-p 00b75000 08:05 800577                     /usr/lib/jvm/java-7-oracle/jre/lib/amd64/server/libjvm.so
7f58a44c9000-7f58a450a000 rw-p 00000000 00:00 0 
7f58a450a000-7f58a46c5000 r-xp 00000000 08:05 168958                     /lib/x86_64-linux-gnu/libc-2.19.so
7f58a46c5000-7f58a48c4000 ---p 001bb000 08:05 168958                     /lib/x86_64-linux-gnu/libc-2.19.so
7f58a48c4000-7f58a48c8000 r--p 001ba000 08:05 168958                     /lib/x86_64-linux-gnu/libc-2.19.so
7f58a48c8000-7f58a48ca000 rw-p 001be000 08:05 168958                     /lib/x86_64-linux-gnu/libc-2.19.so
7f58a48ca000-7f58a48cf000 rw-p 00000000 00:00 0 
7f58a48cf000-7f58a48d2000 r-xp 00000000 08:05 168943                     /lib/x86_64-linux-gnu/libdl-2.19.so
7f58a48d2000-7f58a4ad1000 ---p 00003000 08:05 168943                     /lib/x86_64-linux-gnu/libdl-2.19.so
7f58a4ad1000-7f58a4ad2000 r--p 00002000 08:05 168943                     /lib/x86_64-linux-gnu/libdl-2.19.so
7f58a4ad2000-7f58a4ad3000 rw-p 00003000 08:05 168943                     /lib/x86_64-linux-gnu/libdl-2.19.so
7f58a4ad3000-7f58a4ae9000 r-xp 00000000 08:05 800558                     /usr/lib/jvm/java-7-oracle/jre/lib/amd64/jli/libjli.so
7f58a4ae9000-7f58a4ce9000 ---p 00016000 08:05 800558                     /usr/lib/jvm/java-7-oracle/jre/lib/amd64/jli/libjli.so
7f58a4ce9000-7f58a4cea000 rw-p 00016000 08:05 800558                     /usr/lib/jvm/java-7-oracle/jre/lib/amd64/jli/libjli.so
7f58a4cea000-7f58a4d03000 r-xp 00000000 08:05 168959                     /lib/x86_64-linux-gnu/libpthread-2.19.so
7f58a4d03000-7f58a4f02000 ---p 00019000 08:05 168959                     /lib/x86_64-linux-gnu/libpthread-2.19.so
7f58a4f02000-7f58a4f03000 r--p 00018000 08:05 168959                     /lib/x86_64-linux-gnu/libpthread-2.19.so
7f58a4f03000-7f58a4f04000 rw-p 00019000 08:05 168959                     /lib/x86_64-linux-gnu/libpthread-2.19.so
7f58a4f04000-7f58a4f08000 rw-p 00000000 00:00 0 
7f58a4f08000-7f58a4f2b000 r-xp 00000000 08:05 168954                     /lib/x86_64-linux-gnu/ld-2.19.so
7f58a4f32000-7f58a4f52000 rw-p 00000000 00:00 0 
7f58a4f52000-7f58a5008000 rw-p 00000000 00:00 0 
7f58a5008000-7f58a500b000 ---p 00000000 00:00 0 
7f58a500b000-7f58a510d000 rw-p 00000000 00:00 0                          [stack:6625]
7f58a510e000-7f58a510f000 rw-p 00000000 00:00 0 
7f58a510f000-7f58a511e000 r--s 000dd000 08:07 5769883                    /home/chin8/Documents/work/programming/android/android-sdk-linux/build-tools/21.1.2/lib/dx.jar
7f58a511e000-7f58a5126000 rw-s 00000000 08:05 1059882                    /tmp/hsperfdata_chin8/6617
7f58a5126000-7f58a5127000 rw-p 00000000 00:00 0 
7f58a5127000-7f58a5128000 ---p 00000000 00:00 0 
7f58a5128000-7f58a512a000 rw-p 00000000 00:00 0 
7f58a512a000-7f58a512b000 r--p 00022000 08:05 168954                     /lib/x86_64-linux-gnu/ld-2.19.so
7f58a512b000-7f58a512c000 rw-p 00023000 08:05 168954                     /lib/x86_64-linux-gnu/ld-2.19.so
7f58a512c000-7f58a512d000 rw-p 00000000 00:00 0 
7fffd5566000-7fffd5588000 rw-p 00000000 00:00 0                          [stack]
7fffd559c000-7fffd559e000 r-xp 00000000 00:00 0                          [vdso]
ffffffffff600000-ffffffffff601000 r-xp 00000000 00:00 0                  [vsyscall]

VM Arguments:
jvm_args: -Xmx1024M 
java_command: /home/chin8/Documents/work/programming/android/android-sdk-linux/build-tools/21.1.2/lib/dx.jar --dex --output /home/chin8/Documents/work/eclipse-workspace/ies-cities/roveretosegnala-cordova/sco.cityreport/sco.cityreport/roveretosegnala/platforms/android/ant-build/classes.dex /home/chin8/Documents/work/eclipse-workspace/ies-cities/roveretosegnala-cordova/sco.cityreport/sco.cityreport/roveretosegnala/platforms/android/ant-build/classes /home/chin8/Documents/work/eclipse-workspace/ies-cities/roveretosegnala-cordova/sco.cityreport/sco.cityreport/roveretosegnala/platforms/android/ant-build/dexedLibs/classes-e657105e8801d7d4ec2b33814cd82f5d.jar
Launcher Type: SUN_STANDARD

Environment Variables:
JAVA_HOME=/usr/lib/jvm/java-7-oracle
PATH=/home/chin8/Documents/work/programming/android/android-sdk-linux/tools/:/home/chin8/Documents/work/programming/android/android-sdk-linux/platform-tools/:/usr/local/sbin:/usr/local/bin:/usr/sbin:/usr/bin:/sbin:/bin:/usr/games:/usr/local/games
SHELL=/bin/bash
DISPLAY=:0

Signal Handlers:
SIGSEGV: [libjvm.so+0x9a3bd0], sa_mask[0]=0x7ffbfeff, sa_flags=0x10000004
SIGBUS: [libjvm.so+0x9a3bd0], sa_mask[0]=0x7ffbfeff, sa_flags=0x10000004
SIGFPE: [libjvm.so+0x81cb60], sa_mask[0]=0x7ffbfeff, sa_flags=0x10000004
SIGPIPE: [libjvm.so+0x81cb60], sa_mask[0]=0x7ffbfeff, sa_flags=0x10000004
SIGXFSZ: [libjvm.so+0x81cb60], sa_mask[0]=0x7ffbfeff, sa_flags=0x10000004
SIGILL: [libjvm.so+0x81cb60], sa_mask[0]=0x7ffbfeff, sa_flags=0x10000004
SIGUSR1: SIG_DFL, sa_mask[0]=0x00000000, sa_flags=0x00000000
SIGUSR2: [libjvm.so+0x81e360], sa_mask[0]=0x00000004, sa_flags=0x10000004
SIGHUP: [libjvm.so+0x81f480], sa_mask[0]=0x7ffbfeff, sa_flags=0x10000004
SIGINT: [libjvm.so+0x81f480], sa_mask[0]=0x7ffbfeff, sa_flags=0x10000004
SIGTERM: [libjvm.so+0x81f480], sa_mask[0]=0x7ffbfeff, sa_flags=0x10000004
SIGQUIT: [libjvm.so+0x81f480], sa_mask[0]=0x7ffbfeff, sa_flags=0x10000004


---------------  S Y S T E M  ---------------

OS:jessie/sid

uname:Linux 3.13.0-46-generic #77-Ubuntu SMP Mon Mar 2 18:23:39 UTC 2015 x86_64
libc:glibc 2.19 NPTL 2.19 
rlimit: STACK 8192k, CORE 0k, NPROC 62953, NOFILE 4096, AS infinity
load average:14,64 5,06 2,51

/proc/meminfo:
MemTotal:        8079684 kB
MemFree:          102472 kB
Buffers:             184 kB
Cached:          1005468 kB
SwapCached:        10316 kB
Active:          6330996 kB
Inactive:        1262696 kB
Active(anon):    6326008 kB
Inactive(anon):  1257132 kB
Active(file):       4988 kB
Inactive(file):     5564 kB
Unevictable:         272 kB
Mlocked:             272 kB
SwapTotal:       2047996 kB
SwapFree:              0 kB
Dirty:                92 kB
Writeback:             0 kB
AnonPages:       6579480 kB
Mapped:           244436 kB
Shmem:            994860 kB
Slab:             117360 kB
SReclaimable:      41936 kB
SUnreclaim:        75424 kB
KernelStack:       12368 kB
PageTables:       126644 kB
NFS_Unstable:          0 kB
Bounce:                0 kB
WritebackTmp:          0 kB
CommitLimit:     6087836 kB
Committed_AS:   25079280 kB
VmallocTotal:   34359738367 kB
VmallocUsed:      374740 kB
VmallocChunk:   34359329368 kB
HardwareCorrupted:     0 kB
AnonHugePages:   1267712 kB
HugePages_Total:       0
HugePages_Free:        0
HugePages_Rsvd:        0
HugePages_Surp:        0
Hugepagesize:       2048 kB
DirectMap4k:       83588 kB
DirectMap2M:     2965504 kB
DirectMap1G:     5242880 kB


CPU:total 8 (4 cores per cpu, 2 threads per core) family 6 model 60 stepping 3, cmov, cx8, fxsr, mmx, sse, sse2, sse3, ssse3, sse4.1, sse4.2, popcnt, avx, avx2, aes, erms, ht, tsc, tscinvbit

/proc/cpuinfo:
processor	: 0
vendor_id	: GenuineIntel
cpu family	: 6
model		: 60
model name	: Intel(R) Core(TM) i7-4810MQ CPU @ 2.80GHz
stepping	: 3
microcode	: 0x1c
cpu MHz		: 2801.000
cache size	: 6144 KB
physical id	: 0
siblings	: 8
core id		: 0
cpu cores	: 4
apicid		: 0
initial apicid	: 0
fpu		: yes
fpu_exception	: yes
cpuid level	: 13
wp		: yes
flags		: fpu vme de pse tsc msr pae mce cx8 apic sep mtrr pge mca cmov pat pse36 clflush dts acpi mmx fxsr sse sse2 ss ht tm pbe syscall nx pdpe1gb rdtscp lm constant_tsc arch_perfmon pebs bts rep_good nopl xtopology nonstop_tsc aperfmperf eagerfpu pni pclmulqdq dtes64 monitor ds_cpl vmx smx est tm2 ssse3 fma cx16 xtpr pdcm pcid sse4_1 sse4_2 x2apic movbe popcnt tsc_deadline_timer aes xsave avx f16c rdrand lahf_lm abm ida arat epb xsaveopt pln pts dtherm tpr_shadow vnmi flexpriority ept vpid fsgsbase tsc_adjust bmi1 avx2 smep bmi2 erms invpcid
bogomips	: 5587.08
clflush size	: 64
cache_alignment	: 64
address sizes	: 39 bits physical, 48 bits virtual
power management:

processor	: 1
vendor_id	: GenuineIntel
cpu family	: 6
model		: 60
model name	: Intel(R) Core(TM) i7-4810MQ CPU @ 2.80GHz
stepping	: 3
microcode	: 0x1c
cpu MHz		: 2801.000
cache size	: 6144 KB
physical id	: 0
siblings	: 8
core id		: 1
cpu cores	: 4
apicid		: 2
initial apicid	: 2
fpu		: yes
fpu_exception	: yes
cpuid level	: 13
wp		: yes
flags		: fpu vme de pse tsc msr pae mce cx8 apic sep mtrr pge mca cmov pat pse36 clflush dts acpi mmx fxsr sse sse2 ss ht tm pbe syscall nx pdpe1gb rdtscp lm constant_tsc arch_perfmon pebs bts rep_good nopl xtopology nonstop_tsc aperfmperf eagerfpu pni pclmulqdq dtes64 monitor ds_cpl vmx smx est tm2 ssse3 fma cx16 xtpr pdcm pcid sse4_1 sse4_2 x2apic movbe popcnt tsc_deadline_timer aes xsave avx f16c rdrand lahf_lm abm ida arat epb xsaveopt pln pts dtherm tpr_shadow vnmi flexpriority ept vpid fsgsbase tsc_adjust bmi1 avx2 smep bmi2 erms invpcid
bogomips	: 5587.08
clflush size	: 64
cache_alignment	: 64
address sizes	: 39 bits physical, 48 bits virtual
power management:

processor	: 2
vendor_id	: GenuineIntel
cpu family	: 6
model		: 60
model name	: Intel(R) Core(TM) i7-4810MQ CPU @ 2.80GHz
stepping	: 3
microcode	: 0x1c
cpu MHz		: 2801.000
cache size	: 6144 KB
physical id	: 0
siblings	: 8
core id		: 2
cpu cores	: 4
apicid		: 4
initial apicid	: 4
fpu		: yes
fpu_exception	: yes
cpuid level	: 13
wp		: yes
flags		: fpu vme de pse tsc msr pae mce cx8 apic sep mtrr pge mca cmov pat pse36 clflush dts acpi mmx fxsr sse sse2 ss ht tm pbe syscall nx pdpe1gb rdtscp lm constant_tsc arch_perfmon pebs bts rep_good nopl xtopology nonstop_tsc aperfmperf eagerfpu pni pclmulqdq dtes64 monitor ds_cpl vmx smx est tm2 ssse3 fma cx16 xtpr pdcm pcid sse4_1 sse4_2 x2apic movbe popcnt tsc_deadline_timer aes xsave avx f16c rdrand lahf_lm abm ida arat epb xsaveopt pln pts dtherm tpr_shadow vnmi flexpriority ept vpid fsgsbase tsc_adjust bmi1 avx2 smep bmi2 erms invpcid
bogomips	: 5587.08
clflush size	: 64
cache_alignment	: 64
address sizes	: 39 bits physical, 48 bits virtual
power management:

processor	: 3
vendor_id	: GenuineIntel
cpu family	: 6
model		: 60
model name	: Intel(R) Core(TM) i7-4810MQ CPU @ 2.80GHz
stepping	: 3
microcode	: 0x1c
cpu MHz		: 2801.000
cache size	: 6144 KB
physical id	: 0
siblings	: 8
core id		: 3
cpu cores	: 4
apicid		: 6
initial apicid	: 6
fpu		: yes
fpu_exception	: yes
cpuid level	: 13
wp		: yes
flags		: fpu vme de pse tsc msr pae mce cx8 apic sep mtrr pge mca cmov pat pse36 clflush dts acpi mmx fxsr sse sse2 ss ht tm pbe syscall nx pdpe1gb rdtscp lm constant_tsc arch_perfmon pebs bts rep_good nopl xtopology nonstop_tsc aperfmperf eagerfpu pni pclmulqdq dtes64 monitor ds_cpl vmx smx est tm2 ssse3 fma cx16 xtpr pdcm pcid sse4_1 sse4_2 x2apic movbe popcnt tsc_deadline_timer aes xsave avx f16c rdrand lahf_lm abm ida arat epb xsaveopt pln pts dtherm tpr_shadow vnmi flexpriority ept vpid fsgsbase tsc_adjust bmi1 avx2 smep bmi2 erms invpcid
bogomips	: 5587.08
clflush size	: 64
cache_alignment	: 64
address sizes	: 39 bits physical, 48 bits virtual
power management:

processor	: 4
vendor_id	: GenuineIntel
cpu family	: 6
model		: 60
model name	: Intel(R) Core(TM) i7-4810MQ CPU @ 2.80GHz
stepping	: 3
microcode	: 0x1c
cpu MHz		: 2801.000
cache size	: 6144 KB
physical id	: 0
siblings	: 8
core id		: 0
cpu cores	: 4
apicid		: 1
initial apicid	: 1
fpu		: yes
fpu_exception	: yes
cpuid level	: 13
wp		: yes
flags		: fpu vme de pse tsc msr pae mce cx8 apic sep mtrr pge mca cmov pat pse36 clflush dts acpi mmx fxsr sse sse2 ss ht tm pbe syscall nx pdpe1gb rdtscp lm constant_tsc arch_perfmon pebs bts rep_good nopl xtopology nonstop_tsc aperfmperf eagerfpu pni pclmulqdq dtes64 monitor ds_cpl vmx smx est tm2 ssse3 fma cx16 xtpr pdcm pcid sse4_1 sse4_2 x2apic movbe popcnt tsc_deadline_timer aes xsave avx f16c rdrand lahf_lm abm ida arat epb xsaveopt pln pts dtherm tpr_shadow vnmi flexpriority ept vpid fsgsbase tsc_adjust bmi1 avx2 smep bmi2 erms invpcid
bogomips	: 5587.08
clflush size	: 64
cache_alignment	: 64
address sizes	: 39 bits physical, 48 bits virtual
power management:

processor	: 5
vendor_id	: GenuineIntel
cpu family	: 6
model		: 60
model name	: Intel(R) Core(TM) i7-4810MQ CPU @ 2.80GHz
stepping	: 3
microcode	: 0x1c
cpu MHz		: 2801.000
cache size	: 6144 KB
physical id	: 0
siblings	: 8
core id		: 1
cpu cores	: 4
apicid		: 3
initial apicid	: 3
fpu		: yes
fpu_exception	: yes
cpuid level	: 13
wp		: yes
flags		: fpu vme de pse tsc msr pae mce cx8 apic sep mtrr pge mca cmov pat pse36 clflush dts acpi mmx fxsr sse sse2 ss ht tm pbe syscall nx pdpe1gb rdtscp lm constant_tsc arch_perfmon pebs bts rep_good nopl xtopology nonstop_tsc aperfmperf eagerfpu pni pclmulqdq dtes64 monitor ds_cpl vmx smx est tm2 ssse3 fma cx16 xtpr pdcm pcid sse4_1 sse4_2 x2apic movbe popcnt tsc_deadline_timer aes xsave avx f16c rdrand lahf_lm abm ida arat epb xsaveopt pln pts dtherm tpr_shadow vnmi flexpriority ept vpid fsgsbase tsc_adjust bmi1 avx2 smep bmi2 erms invpcid
bogomips	: 5587.08
clflush size	: 64
cache_alignment	: 64
address sizes	: 39 bits physical, 48 bits virtual
power management:

processor	: 6
vendor_id	: GenuineIntel
cpu family	: 6
model		: 60
model name	: Intel(R) Core(TM) i7-4810MQ CPU @ 2.80GHz
stepping	: 3
microcode	: 0x1c
cpu MHz		: 2801.000
cache size	: 6144 KB
physical id	: 0
siblings	: 8
core id		: 2
cpu cores	: 4
apicid		: 5
initial apicid	: 5
fpu		: yes
fpu_exception	: yes
cpuid level	: 13
wp		: yes
flags		: fpu vme de pse tsc msr pae mce cx8 apic sep mtrr pge mca cmov pat pse36 clflush dts acpi mmx fxsr sse sse2 ss ht tm pbe syscall nx pdpe1gb rdtscp lm constant_tsc arch_perfmon pebs bts rep_good nopl xtopology nonstop_tsc aperfmperf eagerfpu pni pclmulqdq dtes64 monitor ds_cpl vmx smx est tm2 ssse3 fma cx16 xtpr pdcm pcid sse4_1 sse4_2 x2apic movbe popcnt tsc_deadline_timer aes xsave avx f16c rdrand lahf_lm abm ida arat epb xsaveopt pln pts dtherm tpr_shadow vnmi flexpriority ept vpid fsgsbase tsc_adjust bmi1 avx2 smep bmi2 erms invpcid
bogomips	: 5587.08
clflush size	: 64
cache_alignment	: 64
address sizes	: 39 bits physical, 48 bits virtual
power management:

processor	: 7
vendor_id	: GenuineIntel
cpu family	: 6
model		: 60
model name	: Intel(R) Core(TM) i7-4810MQ CPU @ 2.80GHz
stepping	: 3
microcode	: 0x1c
cpu MHz		: 2801.000
cache size	: 6144 KB
physical id	: 0
siblings	: 8
core id		: 3
cpu cores	: 4
apicid		: 7
initial apicid	: 7
fpu		: yes
fpu_exception	: yes
cpuid level	: 13
wp		: yes
flags		: fpu vme de pse tsc msr pae mce cx8 apic sep mtrr pge mca cmov pat pse36 clflush dts acpi mmx fxsr sse sse2 ss ht tm pbe syscall nx pdpe1gb rdtscp lm constant_tsc arch_perfmon pebs bts rep_good nopl xtopology nonstop_tsc aperfmperf eagerfpu pni pclmulqdq dtes64 monitor ds_cpl vmx smx est tm2 ssse3 fma cx16 xtpr pdcm pcid sse4_1 sse4_2 x2apic movbe popcnt tsc_deadline_timer aes xsave avx f16c rdrand lahf_lm abm ida arat epb xsaveopt pln pts dtherm tpr_shadow vnmi flexpriority ept vpid fsgsbase tsc_adjust bmi1 avx2 smep bmi2 erms invpcid
bogomips	: 5587.08
clflush size	: 64
cache_alignment	: 64
address sizes	: 39 bits physical, 48 bits virtual
power management:



Memory: 4k page, physical 8079684k(102032k free), swap 2047996k(0k free)

vm_info: Java HotSpot(TM) 64-Bit Server VM (24.76-b04) for linux-amd64 JRE (1.7.0_76-b13), built on Dec 18 2014 16:58:39 by "java_re" with gcc 4.3.0 20080428 (Red Hat 4.3.0-8)

time: Tue Mar 10 10:45:00 2015
elapsed time: 25 seconds

